﻿"Венерина мухоловка" из тыквы Рэя Виллафэйна.
 парит над  чемпионкой мира 2013 года.
<br><br><br>

<img src="https://farm4.staticflickr.com/3933/15559013476_a111a3b1c7_o.jpg" width="640">

<br/><br/><br/><br/><br/>

<img src="https://farm4.staticflickr.com/3938/15456616158_68fb50851b_c.jpg" width="420">

 
<br/><br/>


 <br/><br/><br/>


Победительница 2013 года родом из Калифорнии, ее вес - 2032 lb ~ 921 кг. 
<br/><br/>   

<img src="https://farm6.staticflickr.com/5614/15635104076_20b1779228_z.jpg" width="420">
<br/><br/><br/><br/><br/>







<img src="https://farm4.staticflickr.com/3815/10392229523_b5559f2257_z.jpg" width="600">
<br/><br/><br/><br/><br/>


<img src="https://farm6.staticflickr.com/5605/15582685575_72b2f5d5d9_z.jpg" width="600">
<br/><br/><br/><br/><br/>







<img src="https://farm4.staticflickr.com/3949/15396684817_7ba1a33611_o.jpg" width="600">
<br/><br/><br/><br/><br/>

<a href="http://elefant59.livejournal.com/49203.html">Венерина мухоловка</a> - хищное растение,  которое питается насекомыми.
<br/><br/>

<img src="https://farm4.staticflickr.com/3951/15518481010_a4364d75fc_o.gif" width="320" height="240" alt="Untitled">
<br/><br/><br/><br/><br/><br/>



<iframe width="560" height="315" src="//www.youtube.com/embed/7wwSdvbsHkg?wmode=opaque" frameborder="0" allowfullscreen="allowfullscreen">
</iframe>

<br/><br/>







