﻿<img src="http://farm5.static.flickr.com/4120/4910599365_97829bf790.jpg" width="420" /> 
<br /><br />

 Станции:   "Cypress Hills", "Woodheaven Boulevard", "75 Street", "104 Street", "111 Street"  линии J, Z (Квинс) 
 
 