﻿<a data-flickr-embed="true"  href="https://www.flickr.com/photos/50463938@N04/28992123011/in/dateposted-public/" title="Untitled">
<img src="https://c4.staticflickr.com/9/8349/28992123011_08978ebd15.jpg" width="420"></a>
<br/>

Xищники в неволе